#STEP_FILE ! FILE_SIZE ! MOD_TIME

TO-220AC_MBR.step ! 50669 ! 1568139260
EDH107M025A9HAA.step ! 256428 ! 1617985091
P8.step ! 229628 ! 1568139260
D8-M.step ! 282667 ! 1568139260
PG-DSO-36-34-L.step ! 1215694 ! 1568139260
D8-L.step ! 282667 ! 1568139260
c-770966-2-d-3d.stp ! 196437 ! 1568139260
507302B00000G--3DModel-STEP-56544.STEP ! 207014 ! 1568139260
rgb_led.step ! 1425019 ! 1617721000
RES_CRCW_2512.step ! 33456 ! 1568139260
0805.step ! 57849 ! 1568139260
21-0140L_T1655-2-L.step ! 193184 ! 1568139260
c-1-770973-0-e-3d.stp ! 784613 ! 1568139260
0603.step ! 57899 ! 1568139260
